module sandbox/http-rest-api

go 1.12

require (
	github.com/BurntSushi/toml v0.3.1
	github.com/asaskevich/govalidator v0.0.0-20190424111038-f61b66f89f4a // indirect
	github.com/go-ozzo/ozzo-validation v3.6.0+incompatible
	github.com/google/uuid v1.1.1
	github.com/gorilla/handlers v1.4.2
	github.com/gorilla/mux v1.7.3
	github.com/gorilla/securecookie v1.1.1
	github.com/gorilla/sessions v1.2.0
	github.com/lib/pq v1.2.0
	github.com/sirupsen/logrus v1.4.2
	github.com/stretchr/testify v1.4.0
	golang.org/x/crypto v0.0.0-20191128160524-b544559bb6d1
)
